<?xml version="1.0" encoding="utf-8"?>
<!-- Generator: Adobe Illustrator 23.0.2, SVG Export Plug-In . SVG Version: 6.00 Build 0)  -->
<svg version="1.1" id="Layer_1" xmlns="http://www.w3.org/2000/svg" xmlns:xlink="http://www.w3.org/1999/xlink" x="0px" y="0px"
	 viewBox="0 0 92.7 92.7" style="enable-background:new 0 0 92.7 92.7;" xml:space="preserve">
<style type="text/css">
	.st0{fill:#E07426;}
	.st1{fill:#FFFFFF;}
</style>
<title>button-min</title>
<circle class="st0" cx="46.3" cy="46.3" r="46.3"/>
<rect x="17.1" y="42.2" class="st1" width="58.6" height="8.3"/>
<rect x="17.1" y="42.2" transform="matrix(1.580351e-14 1 -1 1.580351e-14 92.7 -2.778222e-12)" class="st1" width="58.6" height="8.3"/>
</svg>
