<svg xmlns="http://www.w3.org/2000/svg" width="340.029" height="340.052" viewBox="0 0 340.029 340.052">
  <g id="magnifying-glass" transform="translate(-0.001 0)" opacity="0.111">
    <path id="Path_1" data-name="Path 1" d="M227.077,38.906c-51.874-51.874-136.3-51.874-188.179,0s-51.863,136.3,0,188.19c46.2,46.184,118.143,51.132,169.984,15.069a28.014,28.014,0,0,0,7.6,14.1l75.546,75.546a28.109,28.109,0,0,0,39.752-39.752l-75.546-75.568a28.107,28.107,0,0,0-14.09-7.579C278.232,157.06,273.284,85.124,227.077,38.906ZM203.226,203.245a99.332,99.332,0,1,1,0-140.476A99.445,99.445,0,0,1,203.226,203.245Z" transform="translate(0 0)" fill="#39d15c"/>
  </g>
</svg>
