<svg xmlns="http://www.w3.org/2000/svg" width="224.189" height="219.775" viewBox="0 0 224.189 219.775">
  <g id="Group_40" data-name="Group 40" transform="translate(0 55.098) rotate(-22)" opacity="0.1">
    <g id="Group_7" data-name="Group 7" transform="translate(0)">
      <g id="Group_6" data-name="Group 6" transform="translate(0)">
        <path id="Path_23" data-name="Path 23" d="M143.621,51.6a3.469,3.469,0,0,0,3.469-3.469V10.407A10.419,10.419,0,0,0,136.683,0H10.414A10.419,10.419,0,0,0,.007,10.407V167.2A10.419,10.419,0,0,0,10.414,177.61h126.27A10.419,10.419,0,0,0,147.09,167.2V141.647a3.469,3.469,0,1,0-6.938,0V167.2a3.473,3.473,0,0,1-3.469,3.469H10.414A3.473,3.473,0,0,1,6.945,167.2V10.407a3.473,3.473,0,0,1,3.469-3.469h126.27a3.473,3.473,0,0,1,3.469,3.469V48.132A3.469,3.469,0,0,0,143.621,51.6Z" transform="translate(-0.007)" fill="#39d15c"/>
      </g>
    </g>
    <g id="Group_9" data-name="Group 9" transform="translate(70.073 151.94)">
      <g id="Group_8" data-name="Group 8">
        <path id="Path_24" data-name="Path 24" d="M224.208,438H205.476a3.469,3.469,0,1,0,0,6.938h18.732a3.469,3.469,0,1,0,0-6.938Z" transform="translate(-202.007 -438)" fill="#39d15c"/>
      </g>
    </g>
    <g id="Group_11" data-name="Group 11" transform="translate(39.546 132.514)">
      <g id="Group_10" data-name="Group 10">
        <path id="Path_25" data-name="Path 25" d="M166.735,382H117.476a3.469,3.469,0,1,0,0,6.938h49.259a3.469,3.469,0,0,0,0-6.938Z" transform="translate(-114.007 -382)" fill="#39d15c"/>
      </g>
    </g>
    <g id="Group_13" data-name="Group 13" transform="translate(39.546 113.088)">
      <g id="Group_12" data-name="Group 12">
        <path id="Path_26" data-name="Path 26" d="M166.735,326H117.476a3.469,3.469,0,0,0,0,6.938h49.259a3.469,3.469,0,0,0,0-6.938Z" transform="translate(-114.007 -326)" fill="#39d15c"/>
      </g>
    </g>
    <g id="Group_15" data-name="Group 15" transform="translate(24.727 93.661)">
      <g id="Group_14" data-name="Group 14">
        <path id="Path_27" data-name="Path 27" d="M77.212,271.016a3.466,3.466,0,1,0,1.017,2.453A3.5,3.5,0,0,0,77.212,271.016Z" transform="translate(-71.287 -270)" fill="#39d15c"/>
      </g>
    </g>
    <g id="Group_17" data-name="Group 17" transform="translate(24.727 113.088)">
      <g id="Group_16" data-name="Group 16">
        <path id="Path_28" data-name="Path 28" d="M77.212,327.016a3.466,3.466,0,1,0,1.017,2.453A3.5,3.5,0,0,0,77.212,327.016Z" transform="translate(-71.287 -326)" fill="#39d15c"/>
      </g>
    </g>
    <g id="Group_19" data-name="Group 19" transform="translate(24.727 132.514)">
      <g id="Group_18" data-name="Group 18">
        <path id="Path_29" data-name="Path 29" d="M77.212,383.016a3.466,3.466,0,1,0,1.017,2.453A3.5,3.5,0,0,0,77.212,383.016Z" transform="translate(-71.287 -382)" fill="#39d15c"/>
      </g>
    </g>
    <g id="Group_21" data-name="Group 21" transform="translate(39.546 93.661)">
      <g id="Group_20" data-name="Group 20">
        <path id="Path_30" data-name="Path 30" d="M166.735,270H117.476a3.469,3.469,0,1,0,0,6.938h49.259a3.469,3.469,0,0,0,0-6.938Z" transform="translate(-114.007 -270)" fill="#39d15c"/>
      </g>
    </g>
    <g id="Group_23" data-name="Group 23" transform="translate(39.546 72.184)">
      <g id="Group_22" data-name="Group 22">
        <path id="Path_31" data-name="Path 31" d="M187.237,208.086H117.476a3.469,3.469,0,0,0,0,6.938h69.761a3.469,3.469,0,1,0,0-6.938Z" transform="translate(-114.007 -208.086)" fill="#39d15c"/>
      </g>
    </g>
    <g id="Group_25" data-name="Group 25" transform="translate(24.727 52.758)">
      <g id="Group_24" data-name="Group 24">
        <path id="Path_32" data-name="Path 32" d="M77.212,153.1a3.466,3.466,0,1,0,1.017,2.453A3.5,3.5,0,0,0,77.212,153.1Z" transform="translate(-71.287 -152.086)" fill="#39d15c"/>
      </g>
    </g>
    <g id="Group_27" data-name="Group 27" transform="translate(24.727 72.184)">
      <g id="Group_26" data-name="Group 26">
        <path id="Path_33" data-name="Path 33" d="M77.212,209.1a3.466,3.466,0,1,0,1.017,2.453A3.5,3.5,0,0,0,77.212,209.1Z" transform="translate(-71.287 -208.086)" fill="#39d15c"/>
      </g>
    </g>
    <g id="Group_29" data-name="Group 29" transform="translate(39.546 52.758)">
      <g id="Group_28" data-name="Group 28">
        <path id="Path_34" data-name="Path 34" d="M187.237,152.086H117.476a3.469,3.469,0,1,0,0,6.938h69.761a3.469,3.469,0,1,0,0-6.938Z" transform="translate(-114.007 -152.086)" fill="#39d15c"/>
      </g>
    </g>
    <g id="Group_31" data-name="Group 31" transform="translate(39.546 33.332)">
      <g id="Group_30" data-name="Group 30">
        <path id="Path_35" data-name="Path 35" d="M197.131,96.086H117.476a3.469,3.469,0,0,0,0,6.938h79.655a3.469,3.469,0,0,0,0-6.938Z" transform="translate(-114.007 -96.086)" fill="#39d15c"/>
      </g>
    </g>
    <g id="Group_33" data-name="Group 33" transform="translate(24.727 13.906)">
      <g id="Group_32" data-name="Group 32">
        <path id="Path_36" data-name="Path 36" d="M77.212,41.1a3.466,3.466,0,1,0,1.017,2.453A3.5,3.5,0,0,0,77.212,41.1Z" transform="translate(-71.287 -40.086)" fill="#39d15c"/>
      </g>
    </g>
    <g id="Group_35" data-name="Group 35" transform="translate(24.727 33.332)">
      <g id="Group_34" data-name="Group 34">
        <path id="Path_37" data-name="Path 37" d="M77.212,97.1a3.466,3.466,0,1,0,1.017,2.453A3.5,3.5,0,0,0,77.212,97.1Z" transform="translate(-71.287 -96.086)" fill="#39d15c"/>
      </g>
    </g>
    <g id="Group_37" data-name="Group 37" transform="translate(39.546 13.906)">
      <g id="Group_36" data-name="Group 36">
        <path id="Path_38" data-name="Path 38" d="M197.131,40.086H117.476a3.469,3.469,0,0,0,0,6.938h79.655a3.469,3.469,0,0,0,0-6.938Z" transform="translate(-114.007 -40.086)" fill="#39d15c"/>
      </g>
    </g>
    <g id="Group_39" data-name="Group 39" transform="translate(103.23 43.249)">
      <g id="Group_38" data-name="Group 38">
        <path id="Path_39" data-name="Path 39" d="M364.683,126.633a14.569,14.569,0,0,0-19.9,5.333l-43.654,75.61a3.474,3.474,0,0,0-.443,1.35l-3.073,27.524a3.469,3.469,0,0,0,5.5,3.178l22.3-16.423a3.463,3.463,0,0,0,.947-1.059l43.653-75.61A14.586,14.586,0,0,0,364.683,126.633Zm-59.3,102.706,1.6-14.372,10.04,5.8Zm16.7-13.667-13.218-7.632L343.9,147.366,357.119,155Zm41.919-72.606-3.419,5.922-13.218-7.632,3.419-5.922a7.632,7.632,0,0,1,13.219,7.632Z" transform="translate(-297.589 -124.675)" fill="#39d15c"/>
      </g>
    </g>
  </g>
</svg>
