<svg id="Component_1_1" data-name="Component 1 – 1" xmlns="http://www.w3.org/2000/svg" width="195" height="195" viewBox="0 0 195 195">
  <circle id="Ellipse_4" data-name="Ellipse 4" cx="97.5" cy="97.5" r="97.5" fill="#f8f8f6"/>
  <g id="Group_5" data-name="Group 5" transform="translate(559.166 59.072)">
    <path id="Path_13" data-name="Path 13" d="M-419.97,158.856h-2.974a1.526,1.526,0,0,0-1.526,1.526,1.526,1.526,0,0,0,1.526,1.526h2.974a1.526,1.526,0,0,0,1.526-1.526A1.526,1.526,0,0,0-419.97,158.856Z" transform="translate(-59.909 -134.678)" fill="#39d15c" stroke="#39d15c" stroke-width="1"/>
    <path id="Path_14" data-name="Path 14" d="M-428.006,336.005a1.537,1.537,0,0,0-1.079.447,1.537,1.537,0,0,0-.447,1.079,1.537,1.537,0,0,0,.447,1.079,1.537,1.537,0,0,0,1.079.447,1.537,1.537,0,0,0,1.079-.447,1.537,1.537,0,0,0,.447-1.079,1.537,1.537,0,0,0-.447-1.079A1.537,1.537,0,0,0-428.006,336.005Z" transform="translate(-55.619 -284.797)" fill="#39d15c" stroke="#39d15c" stroke-width="1"/>
    <path id="Path_15" data-name="Path 15" d="M-241.5,161.908h2.974A1.526,1.526,0,0,0-237,160.382a1.526,1.526,0,0,0-1.526-1.526H-241.5a1.526,1.526,0,0,0-1.526,1.526A1.526,1.526,0,0,0-241.5,161.908Z" transform="translate(-213.664 -134.678)" fill="#39d15c" stroke="#39d15c" stroke-width="1"/>
    <path id="Path_16" data-name="Path 16" d="M-428.006,402a1.537,1.537,0,0,0-1.079.447,1.537,1.537,0,0,0-.447,1.079,1.537,1.537,0,0,0,.447,1.079,1.537,1.537,0,0,0,1.079.447,1.537,1.537,0,0,0,1.079-.447,1.537,1.537,0,0,0,.447-1.079,1.537,1.537,0,0,0-.447-1.079A1.537,1.537,0,0,0-428.006,402Z" transform="translate(-55.619 -340.725)" fill="#39d15c" stroke="#39d15c" stroke-width="1"/>
    <path id="Path_17" data-name="Path 17" d="M-428.006,270.007a1.537,1.537,0,0,0-1.079.447,1.537,1.537,0,0,0-.447,1.079,1.537,1.537,0,0,0,.447,1.079,1.537,1.537,0,0,0,1.079.447,1.537,1.537,0,0,0,1.079-.447,1.537,1.537,0,0,0,.447-1.079,1.537,1.537,0,0,0-.447-1.079A1.537,1.537,0,0,0-428.006,270.007Z" transform="translate(-55.619 -228.869)" fill="#39d15c" stroke="#39d15c" stroke-width="1"/>
    <path id="Path_18" data-name="Path 18" d="M-346.206,110.39a2.575,2.575,0,0,1-2.746-2.351,1.526,1.526,0,0,0-1.526-1.526A1.526,1.526,0,0,0-352,108.039a5.489,5.489,0,0,0,4.272,5.212V114.5a1.526,1.526,0,0,0,1.526,1.526,1.526,1.526,0,0,0,1.526-1.526v-1.245a5.489,5.489,0,0,0,4.272-5.212,5.617,5.617,0,0,0-5.8-5.4,2.575,2.575,0,0,1-2.746-2.351,2.575,2.575,0,0,1,2.746-2.352,2.575,2.575,0,0,1,2.746,2.352,1.526,1.526,0,0,0,1.526,1.526,1.526,1.526,0,0,0,1.526-1.526,5.489,5.489,0,0,0-4.272-5.212V94.039a1.526,1.526,0,0,0-1.526-1.526,1.526,1.526,0,0,0-1.526,1.526v1.034A5.489,5.489,0,0,0-352,100.284a5.617,5.617,0,0,0,5.8,5.4,2.575,2.575,0,0,1,2.746,2.352A2.575,2.575,0,0,1-346.206,110.39Z" transform="translate(-121.318 -78.458)" fill="#39d15c" stroke="#39d15c" stroke-width="1"/>
    <path id="Path_19" data-name="Path 19" d="M-351.2,270.007h-24.173a1.526,1.526,0,0,0-1.526,1.526,1.526,1.526,0,0,0,1.526,1.526H-351.2a1.526,1.526,0,0,0,1.526-1.526A1.526,1.526,0,0,0-351.2,270.007Z" transform="translate(-100.218 -228.869)" fill="#39d15c" stroke="#39d15c" stroke-width="1"/>
    <path id="Path_20" data-name="Path 20" d="M-351.2,336.005h-24.173a1.526,1.526,0,0,0-1.526,1.526,1.526,1.526,0,0,0,1.526,1.526H-351.2a1.526,1.526,0,0,0,1.526-1.526A1.526,1.526,0,0,0-351.2,336.005Z" transform="translate(-100.218 -284.797)" fill="#39d15c" stroke="#39d15c" stroke-width="1"/>
    <path id="Path_21" data-name="Path 21" d="M-351.2,402h-24.173a1.526,1.526,0,0,0-1.526,1.526,1.526,1.526,0,0,0,1.526,1.526H-351.2a1.526,1.526,0,0,0,1.526-1.526A1.526,1.526,0,0,0-351.2,402Z" transform="translate(-100.218 -340.725)" fill="#39d15c" stroke="#39d15c" stroke-width="1"/>
    <path id="Path_22" data-name="Path 22" d="M-439.879,38.364V-.072l-6.038,6.038-5.4-5.4-5.4,5.4-5.4-5.4-5.4,5.4-5.4-5.4-5.4,5.4-5.4-5.4-5.4,5.4L-495.166-.07v70.2a7.053,7.053,0,0,0,7.045,7.045h53.148a7.053,7.053,0,0,0,7.045-7.045V38.364ZM-488.121,75.01A4.888,4.888,0,0,1-493,70.128V5.151l2.794,2.794a1.526,1.526,0,0,0,2.158,0l4.322-4.322,4.322,4.322a1.526,1.526,0,0,0,2.158,0l4.322-4.322,4.323,4.322a1.526,1.526,0,0,0,2.158,0l4.322-4.322,4.322,4.322a1.526,1.526,0,0,0,2.158,0l4.322-4.322L-447,7.945a1.526,1.526,0,0,0,2.158,0l2.8-2.8,0,64.979a7.893,7.893,0,0,0,1.687,4.883Zm58.031-4.883h0a4.888,4.888,0,0,1-4.883,4.883,4.888,4.888,0,0,1-4.883-4.883v-29.6h9.765Z" fill="#39d15c" stroke="#39d15c" stroke-width="1"/>
  </g>
</svg>
