<svg xmlns="http://www.w3.org/2000/svg" width="472.961" height="154.271" viewBox="0 0 472.961 154.271">
  <g id="Component_4_1" data-name="Component 4 – 1" transform="translate(0)">
    <g id="Group_63" data-name="Group 63" transform="translate(472.961 154.271) rotate(180)" opacity="0.22">
      <path id="Path_50" data-name="Path 50" d="M906.461,672.771h7v-10h-7Zm0-20h7v-10h-7Zm0-20h7v-10h-7Zm0-20h7v-10h-7Zm0-20h7v-.232a74.909,74.909,0,0,0-.7-10.213l-6.935.957a67.8,67.8,0,0,1,.634,9.256ZM903.865,574l6.728-1.932a73.625,73.625,0,0,0-3.607-9.848l-6.384,2.87A66.646,66.646,0,0,1,903.865,574Zm-7.757-17.266,5.914-3.744a74.605,74.605,0,0,0-6.216-8.437l-5.329,4.539A67.624,67.624,0,0,1,896.108,556.732Zm-12.282-14.419,4.637-5.244a74.569,74.569,0,0,0-8.322-6.376l-3.854,5.843A67.628,67.628,0,0,1,883.826,542.313Zm-15.817-10.431,2.989-6.33a73.872,73.872,0,0,0-9.785-3.792l-2.058,6.69A66.826,66.826,0,0,1,868.009,531.882Zm-18.1-5.567,1.085-6.915a74.728,74.728,0,0,0-10.442-.891l-.1,7A67.9,67.9,0,0,1,849.909,526.315ZM440.5,525.5h10v-7h-10Zm20,0h10v-7h-10Zm20,0h10v-7h-10Zm20,0h10v-7h-10Zm20,0h10v-7h-10Zm20,0h10v-7h-10Zm20,0h10v-7h-10Zm20,0h10v-7h-10Zm20,0h10v-7h-10Zm20,0h10v-7h-10Zm20,0h10v-7h-10Zm20,0h10v-7h-10Zm20,0h10v-7h-10Zm20,0h10v-7h-10Zm20,0h10v-7h-10Zm20,0h10v-7h-10Zm20,0h10v-7h-10Zm20,0h10v-7h-10Zm20,0h10v-7h-10Zm20,0h10v-7h-10Z" transform="translate(-440.5 -518.5)" fill="#969696"/>
    </g>
  </g>
</svg>
